number,seller_email,description,postage_rate,start_bid_price
1000,gloria12@gmail.com,cookbook,35,200
1001,stella565@gmail.com,skirt,60,800
1002,joe99@gmail.com,T-shirt,60,600
1003,mary36@gmail.com,novel,35,200
1004,nicole74@gmail.com,jacket,60,1000
1005,nicole74@gmail.com,purse,60,2000
1006,kenneth@eauction.com,suitcase,100,4000
1007,kenneth@eauction.com,artbook,35,600
